esperienza10/dati/inputscende_outputsale.csv

Record Length,2500,Points,-25.20000E-9,120.0000E-3,,Record Length,2500,Points,-25.20000E-9,3.44000,
Sample Interval,40.00000E-12,s,-25.16000E-9,120.0000E-3,,Sample Interval,40.00000E-12,s,-25.16000E-9,3.44000,
Trigger Point,630.000010,Samples,-25.12000E-9,120.0000E-3,,Trigger Point,630.000010,Samples,-25.12000E-9,3.44000,
,,,-25.08000E-9,120.0000E-3,,,,,-25.08000E-9,3.44000,
,,,-25.04000E-9,120.0000E-3,,,,,-25.04000E-9,3.44000,
,,,-25.00000E-9,120.0000E-3,,,,,-25.00000E-9,3.44000,
Source,CH1,,-24.96000E-9,120.0000E-3,,Source,CH2,,-24.96000E-9,3.44000,
Vertical Units,Volts,,-24.92000E-9,120.0000E-3,,Vertical Units,Volts,,-24.92000E-9,3.44000,
Vertical Scale,1.000,,-24.88000E-9,120.0000E-3,,Vertical Scale,1.000,,-24.88000E-9,3.44000,
Vertical Offset,0,,-24.84000E-9,120.0000E-3,,Vertical Offset,0,,-24.84000E-9,3.44000,
Horizontal Units,s,,-24.80000E-9,120.0000E-3,,Horizontal Units,s,,-24.80000E-9,3.44000,
Horizontal Scale,10.00000E-9,,-24.76000E-9,120.0000E-3,,Horizontal Scale,10.00000E-9,,-24.76000E-9,3.44000,
Pt Fmt,Y,,-24.72000E-9,120.0000E-3,,Pt Fmt,Y,,-24.72000E-9,3.44000,
Yzero,-2.1600,,-24.68000E-9,120.0000E-3,,Yzero,-600.000000E-3,,-24.68000E-9,3.44000,
Probe Atten,1.000,,-24.64000E-9,120.0000E-3,,Probe Atten,1.000,,-24.64000E-9,3.44000,
,,,-24.60000E-9,120.0000E-3,,,,,-24.60000E-9,3.44000,
Note,TDS 1012B - 18:16:26   21/03/2017,,-24.56000E-9,120.0000E-3,,Note,TDS 1012B - 18:16:26   21/03/2017,,-24.56000E-9,3.44000,
,,,-24.52000E-9,120.0000E-3,,,,,-24.52000E-9,3.44000,
,,,-24.48000E-9,120.0000E-3,,,,,-24.48000E-9,3.44000,
,,,-24.44000E-9,120.0000E-3,,,,,-24.44000E-9,3.44000,
,,,-24.40000E-9,120.0000E-3,,,,,-24.40000E-9,3.44000,
,,,-24.36000E-9,120.0000E-3,,,,,-24.36000E-9,3.44000,
,,,-24.32000E-9,120.0000E-3,,,,,-24.32000E-9,3.44000,
,,,-24.28000E-9,120.0000E-3,,,,,-24.28000E-9,3.44000,
,,,-24.24000E-9,120.0000E-3,,,,,-24.24000E-9,3.44000,
,,,-24.20000E-9,120.0000E-3,,,,,-24.20000E-9,3.44000,
,,,-24.16000E-9,120.0000E-3,,,,,-24.16000E-9,3.44000,
,,,-24.12000E-9,120.0000E-3,,,,,-24.12000E-9,3.44000,
,,,-24.08000E-9,120.0000E-3,,,,,-24.08000E-9,3.44000,
,,,-24.04000E-9,120.0000E-3,,,,,-24.04000E-9,3.44000,
,,,-24.00000E-9,120.0000E-3,,,,,-24.00000E-9,3.44000,
,,,-23.96000E-9,120.0000E-3,,,,,-23.96000E-9,3.44000,
,,,-23.92000E-9,120.0000E-3,,,,,-23.92000E-9,3.44000,
,,,-23.88000E-9,120.0000E-3,,,,,-23.88000E-9,3.44000,
,,,-23.84000E-9,120.0000E-3,,,,,-23.84000E-9,3.44000,
,,,-23.80000E-9,120.0000E-3,,,,,-23.80000E-9,3.44000,
,,,-23.76000E-9,120.0000E-3,,,,,-23.76000E-9,3.44000,
,,,-23.72000E-9,120.0000E-3,,,,,-23.72000E-9,3.44000,
,,,-23.68000E-9,120.0000E-3,,,,,-23.68000E-9,3.44000,
,,,-23.64000E-9,120.0000E-3,,,,,-23.64000E-9,3.44000,
,,,-23.60000E-9,120.0000E-3,,,,,-23.60000E-9,3.44000,
,,,-23.56000E-9,120.0000E-3,,,,,-23.56000E-9,3.44000,
,,,-23.52000E-9,120.0000E-3,,,,,-23.52000E-9,3.44000,
,,,-23.48000E-9,120.0000E-3,,,,,-23.48000E-9,3.44000,
,,,-23.44000E-9,120.0000E-3,,,,,-23.44000E-9,3.44000,
,,,-23.40000E-9,120.0000E-3,,,,,-23.40000E-9,3.44000,
,,,-23.36000E-9,120.0000E-3,,,,,-23.36000E-9,3.44000,
,,,-23.32000E-9,120.0000E-3,,,,,-23.32000E-9,3.44000,
,,,-23.28000E-9,120.0000E-3,,,,,-23.28000E-9,3.44000,
,,,-23.24000E-9,120.0000E-3,,,,,-23.24000E-9,3.44000,
,,,-23.20000E-9,120.0000E-3,,,,,-23.20000E-9,3.44000,
,,,-23.16000E-9,120.0000E-3,,,,,-23.16000E-9,3.44000,
,,,-23.12000E-9,120.0000E-3,,,,,-23.12000E-9,3.44000,
,,,-23.08000E-9,120.0000E-3,,,,,-23.08000E-9,3.44000,
,,,-23.04000E-9,120.0000E-3,,,,,-23.04000E-9,3.44000,
,,,-23.00000E-9,120.0000E-3,,,,,-23.00000E-9,3.44000,
,,,-22.96000E-9,120.0000E-3,,,,,-22.96000E-9,3.44000,
,,,-22.92000E-9,120.0000E-3,,,,,-22.92000E-9,3.44000,
,,,-22.88000E-9,120.0000E-3,,,,,-22.88000E-9,3.44000,
,,,-22.84000E-9,120.0000E-3,,,,,-22.84000E-9,3.44000,
,,,-22.80000E-9,120.0000E-3,,,,,-22.80000E-9,3.44000,
,,,-22.76000E-9,120.0000E-3,,,,,-22.76000E-9,3.44000,
,,,-22.72000E-9,120.0000E-3,,,,,-22.72000E-9,3.44000,
,,,-22.68000E-9,120.0000E-3,,,,,-22.68000E-9,3.44000,
,,,-22.64000E-9,120.0000E-3,,,,,-22.64000E-9,3.44000,
,,,-22.60000E-9,120.0000E-3,,,,,-22.60000E-9,3.44000,
,,,-22.56000E-9,160.00000E-3,,,,,-22.56000E-9,3.44000,
,,,-22.52000E-9,160.00000E-3,,,,,-22.52000E-9,3.44000,
,,,-22.48000E-9,160.00000E-3,,,,,-22.48000E-9,3.44000,
,,,-22.44000E-9,160.00000E-3,,,,,-22.44000E-9,3.44000,
,,,-22.40000E-9,160.00000E-3,,,,,-22.40000E-9,3.44000,
,,,-22.36000E-9,160.00000E-3,,,,,-22.36000E-9,3.44000,
,,,-22.32000E-9,160.00000E-3,,,,,-22.32000E-9,3.44000,
,,,-22.28000E-9,160.00000E-3,,,,,-22.28000E-9,3.44000,
,,,-22.24000E-9,160.00000E-3,,,,,-22.24000E-9,3.44000,
,,,-22.20000E-9,160.00000E-3,,,,,-22.20000E-9,3.44000,
,,,-22.16000E-9,160.00000E-3,,,,,-22.16000E-9,3.44000,
,,,-22.12000E-9,160.00000E-3,,,,,-22.12000E-9,3.44000,
,,,-22.08000E-9,160.00000E-3,,,,,-22.08000E-9,3.44000,
,,,-22.04000E-9,160.00000E-3,,,,,-22.04000E-9,3.44000,
,,,-22.00000E-9,160.00000E-3,,,,,-22.00000E-9,3.44000,
,,,-21.96000E-9,160.00000E-3,,,,,-21.96000E-9,3.44000,
,,,-21.92000E-9,160.00000E-3,,,,,-21.92000E-9,3.44000,
,,,-21.88000E-9,160.00000E-3,,,,,-21.88000E-9,3.44000,
,,,-21.84000E-9,160.00000E-3,,,,,-21.84000E-9,3.44000,
,,,-21.80000E-9,160.00000E-3,,,,,-21.80000E-9,3.44000,
,,,-21.76000E-9,160.00000E-3,,,,,-21.76000E-9,3.44000,
,,,-21.72000E-9,160.00000E-3,,,,,-21.72000E-9,3.44000,
,,,-21.68000E-9,160.00000E-3,,,,,-21.68000E-9,3.44000,
,,,-21.64000E-9,160.00000E-3,,,,,-21.64000E-9,3.44000,
,,,-21.60000E-9,160.00000E-3,,,,,-21.60000E-9,3.44000,
,,,-21.56000E-9,160.00000E-3,,,,,-21.56000E-9,3.44000,
,,,-21.52000E-9,160.00000E-3,,,,,-21.52000E-9,3.44000,
,,,-21.48000E-9,160.00000E-3,,,,,-21.48000E-9,3.44000,
,,,-21.44000E-9,160.00000E-3,,,,,-21.44000E-9,3.44000,
,,,-21.40000E-9,160.00000E-3,,,,,-21.40000E-9,3.44000,
,,,-21.36000E-9,160.00000E-3,,,,,-21.36000E-9,3.44000,
,,,-21.32000E-9,160.00000E-3,,,,,-21.32000E-9,3.44000,
,,,-21.28000E-9,120.0000E-3,,,,,-21.28000E-9,3.44000,
,,,-21.24000E-9,120.0000E-3,,,,,-21.24000E-9,3.44000,
,,,-21.20000E-9,120.0000E-3,,,,,-21.20000E-9,3.44000,
,,,-21.16000E-9,120.0000E-3,,,,,-21.16000E-9,3.44000,
,,,-21.12000E-9,120.0000E-3,,,,,-21.12000E-9,3.44000,
,,,-21.08000E-9,120.0000E-3,,,,,-21.08000E-9,3.44000,
,,,-21.04000E-9,120.0000E-3,,,,,-21.04000E-9,3.44000,
,,,-21.00000E-9,120.0000E-3,,,,,-21.00000E-9,3.44000,
,,,-20.96000E-9,120.0000E-3,,,,,-20.96000E-9,3.44000,
,,,-20.92000E-9,120.0000E-3,,,,,-20.92000E-9,3.44000,
,,,-20.88000E-9,120.0000E-3,,,,,-20.88000E-9,3.44000,
,,,-20.84000E-9,120.0000E-3,,,,,-20.84000E-9,3.44000,
,,,-20.80000E-9,120.0000E-3,,,,,-20.80000E-9,3.44000,
,,,-20.76000E-9,120.0000E-3,,,,,-20.76000E-9,3.44000,
,,,-20.72000E-9,120.0000E-3,,,,,-20.72000E-9,3.44000,
,,,-20.68000E-9,120.0000E-3,,,,,-20.68000E-9,3.44000,
,,,-20.64000E-9,120.0000E-3,,,,,-20.64000E-9,3.44000,
,,,-20.60000E-9,120.0000E-3,,,,,-20.60000E-9,3.44000,
,,,-20.56000E-9,120.0000E-3,,,,,-20.56000E-9,3.44000,
,,,-20.52000E-9,120.0000E-3,,,,,-20.52000E-9,3.44000,
,,,-20.48000E-9,120.0000E-3,,,,,-20.48000E-9,3.44000,
,,,-20.44000E-9,120.0000E-3,,,,,-20.44000E-9,3.44000,
,,,-20.40000E-9,120.0000E-3,,,,,-20.40000E-9,3.44000,
,,,-20.36000E-9,120.0000E-3,,,,,-20.36000E-9,3.44000,
,,,-20.32000E-9,120.0000E-3,,,,,-20.32000E-9,3.44000,
,,,-20.28000E-9,120.0000E-3,,,,,-20.28000E-9,3.44000,
,,,-20.24000E-9,120.0000E-3,,,,,-20.24000E-9,3.44000,
,,,-20.20000E-9,120.0000E-3,,,,,-20.20000E-9,3.44000,
,,,-20.16000E-9,120.0000E-3,,,,,-20.16000E-9,3.44000,
,,,-20.12000E-9,120.0000E-3,,,,,-20.12000E-9,3.44000,
,,,-20.0800E-9,79.999998E-3,,,,,-20.0800E-9,3.44000,
,,,-20.0400E-9,79.999998E-3,,,,,-20.0400E-9,3.44000,
,,,-20.0000E-9,79.999998E-3,,,,,-20.0000E-9,3.44000,
,,,-19.9600E-9,79.999998E-3,,,,,-19.9600E-9,3.44000,
,,,-19.9200E-9,79.999998E-3,,,,,-19.9200E-9,3.44000,
,,,-19.8800E-9,79.999998E-3,,,,,-19.8800E-9,3.44000,
,,,-19.8400E-9,79.999998E-3,,,,,-19.8400E-9,3.44000,
,,,-19.8000E-9,79.999998E-3,,,,,-19.8000E-9,3.44000,
,,,-19.7600E-9,120.0000E-3,,,,,-19.7600E-9,3.44000,
,,,-19.7200E-9,120.0000E-3,,,,,-19.7200E-9,3.44000,
,,,-19.6800E-9,120.0000E-3,,,,,-19.6800E-9,3.44000,
,,,-19.6400E-9,120.0000E-3,,,,,-19.6400E-9,3.44000,
,,,-19.6000E-9,120.0000E-3,,,,,-19.6000E-9,3.44000,
,,,-19.5600E-9,120.0000E-3,,,,,-19.5600E-9,3.44000,
,,,-19.5200E-9,120.0000E-3,,,,,-19.5200E-9,3.44000,
,,,-19.4800E-9,120.0000E-3,,,,,-19.4800E-9,3.44000,
,,,-19.4400E-9,120.0000E-3,,,,,-19.4400E-9,3.44000,
,,,-19.4000E-9,120.0000E-3,,,,,-19.4000E-9,3.44000,
,,,-19.3600E-9,120.0000E-3,,,,,-19.3600E-9,3.44000,
,,,-19.3200E-9,120.0000E-3,,,,,-19.3200E-9,3.44000,
,,,-19.2800E-9,120.0000E-3,,,,,-19.2800E-9,3.44000,
,,,-19.2400E-9,120.0000E-3,,,,,-19.2400E-9,3.44000,
,,,-19.2000E-9,120.0000E-3,,,,,-19.2000E-9,3.44000,
,,,-19.1600E-9,120.0000E-3,,,,,-19.1600E-9,3.44000,
,,,-19.1200E-9,120.0000E-3,,,,,-19.1200E-9,3.44000,
,,,-19.0800E-9,120.0000E-3,,,,,-19.0800E-9,3.44000,
,,,-19.0400E-9,120.0000E-3,,,,,-19.0400E-9,3.44000,
,,,-19.0000E-9,120.0000E-3,,,,,-19.0000E-9,3.44000,
,,,-18.9600E-9,120.0000E-3,,,,,-18.9600E-9,3.44000,
,,,-18.9200E-9,120.0000E-3,,,,,-18.9200E-9,3.44000,
,,,-18.8800E-9,120.0000E-3,,,,,-18.8800E-9,3.44000,
,,,-18.8400E-9,120.0000E-3,,,,,-18.8400E-9,3.44000,
,,,-18.8000E-9,120.0000E-3,,,,,-18.8000E-9,3.44000,
,,,-18.7600E-9,120.0000E-3,,,,,-18.7600E-9,3.44000,
,,,-18.7200E-9,120.0000E-3,,,,,-18.7200E-9,3.44000,
,,,-18.6800E-9,120.0000E-3,,,,,-18.6800E-9,3.44000,
,,,-18.6400E-9,120.0000E-3,,,,,-18.6400E-9,3.44000,
,,,-18.6000E-9,120.0000E-3,,,,,-18.6000E-9,3.44000,
,,,-18.5600E-9,160.00000E-3,,,,,-18.5600E-9,3.44000,
,,,-18.5200E-9,160.00000E-3,,,,,-18.5200E-9,3.44000,
,,,-18.4800E-9,160.00000E-3,,,,,-18.4800E-9,3.44000,
,,,-18.4400E-9,160.00000E-3,,,,,-18.4400E-9,3.44000,
,,,-18.4000E-9,160.00000E-3,,,,,-18.4000E-9,3.44000,
,,,-18.3600E-9,160.00000E-3,,,,,-18.3600E-9,3.44000,
,,,-18.3200E-9,160.00000E-3,,,,,-18.3200E-9,3.44000,
,,,-18.2800E-9,160.00000E-3,,,,,-18.2800E-9,3.44000,
,,,-18.2400E-9,160.00000E-3,,,,,-18.2400E-9,3.44000,
,,,-18.2000E-9,160.00000E-3,,,,,-18.2000E-9,3.44000,
,,,-18.1600E-9,160.00000E-3,,,,,-18.1600E-9,3.44000,
,,,-18.1200E-9,160.00000E-3,,,,,-18.1200E-9,3.44000,
,,,-18.0800E-9,160.00000E-3,,,,,-18.0800E-9,3.44000,
,,,-18.0400E-9,160.00000E-3,,,,,-18.0400E-9,3.44000,
,,,-18.0000E-9,160.00000E-3,,,,,-18.0000E-9,3.44000,
,,,-17.9600E-9,160.00000E-3,,,,,-17.9600E-9,3.44000,
,,,-17.9200E-9,160.00000E-3,,,,,-17.9200E-9,3.44000,
,,,-17.8800E-9,160.00000E-3,,,,,-17.8800E-9,3.44000,
,,,-17.8400E-9,160.00000E-3,,,,,-17.8400E-9,3.44000,
,,,-17.8000E-9,160.00000E-3,,,,,-17.8000E-9,3.44000,
,,,-17.7600E-9,160.00000E-3,,,,,-17.7600E-9,3.44000,
,,,-17.7200E-9,160.00000E-3,,,,,-17.7200E-9,3.44000,
,,,-17.6800E-9,160.00000E-3,,,,,-17.6800E-9,3.44000,
,,,-17.6400E-9,160.00000E-3,,,,,-17.6400E-9,3.44000,
,,,-17.6000E-9,160.00000E-3,,,,,-17.6000E-9,3.44000,
,,,-17.5600E-9,160.00000E-3,,,,,-17.5600E-9,3.44000,
,,,-17.5200E-9,160.00000E-3,,,,,-17.5200E-9,3.44000,
,,,-17.4800E-9,160.00000E-3,,,,,-17.4800E-9,3.44000,
,,,-17.4400E-9,160.00000E-3,,,,,-17.4400E-9,3.44000,
,,,-17.4000E-9,160.00000E-3,,,,,-17.4000E-9,3.44000,
,,,-17.3600E-9,160.00000E-3,,,,,-17.3600E-9,3.44000,
,,,-17.3200E-9,160.00000E-3,,,,,-17.3200E-9,3.44000,
,,,-17.2800E-9,160.00000E-3,,,,,-17.2800E-9,3.44000,
,,,-17.2400E-9,160.00000E-3,,,,,-17.2400E-9,3.44000,
,,,-17.2000E-9,160.00000E-3,,,,,-17.2000E-9,3.44000,
,,,-17.1600E-9,160.00000E-3,,,,,-17.1600E-9,3.44000,
,,,-17.1200E-9,160.00000E-3,,,,,-17.1200E-9,3.44000,
,,,-17.0800E-9,160.00000E-3,,,,,-17.0800E-9,3.44000,
,,,-17.0400E-9,160.00000E-3,,,,,-17.0400E-9,3.44000,
,,,-17.0000E-9,160.00000E-3,,,,,-17.0000E-9,3.44000,
,,,-16.9600E-9,160.00000E-3,,,,,-16.9600E-9,3.44000,
,,,-16.9200E-9,160.00000E-3,,,,,-16.9200E-9,3.44000,
,,,-16.8800E-9,160.00000E-3,,,,,-16.8800E-9,3.44000,
,,,-16.8400E-9,160.00000E-3,,,,,-16.8400E-9,3.44000,
,,,-16.8000E-9,160.00000E-3,,,,,-16.8000E-9,3.44000,
,,,-16.7600E-9,160.00000E-3,,,,,-16.7600E-9,3.44000,
,,,-16.7200E-9,160.00000E-3,,,,,-16.7200E-9,3.44000,
,,,-16.6800E-9,160.00000E-3,,,,,-16.6800E-9,3.44000,
,,,-16.6400E-9,160.00000E-3,,,,,-16.6400E-9,3.44000,
,,,-16.6000E-9,160.00000E-3,,,,,-16.6000E-9,3.44000,
,,,-16.5600E-9,160.00000E-3,,,,,-16.5600E-9,3.44000,
,,,-16.5200E-9,160.00000E-3,,,,,-16.5200E-9,3.44000,
,,,-16.4800E-9,160.00000E-3,,,,,-16.4800E-9,3.44000,
,,,-16.4400E-9,160.00000E-3,,,,,-16.4400E-9,3.44000,
,,,-16.4000E-9,160.00000E-3,,,,,-16.4000E-9,3.44000,
,,,-16.3600E-9,160.00000E-3,,,,,-16.3600E-9,3.44000,
,,,-16.3200E-9,160.00000E-3,,,,,-16.3200E-9,3.44000,
,,,-16.2800E-9,160.00000E-3,,,,,-16.2800E-9,3.44000,
,,,-16.2400E-9,160.00000E-3,,,,,-16.2400E-9,3.44000,
,,,-16.2000E-9,160.00000E-3,,,,,-16.2000E-9,3.44000,
,,,-16.1600E-9,160.00000E-3,,,,,-16.1600E-9,3.44000,
,,,-16.1200E-9,160.00000E-3,,,,,-16.1200E-9,3.44000,
,,,-16.0800E-9,160.00000E-3,,,,,-16.0800E-9,3.44000,
,,,-16.0400E-9,160.00000E-3,,,,,-16.0400E-9,3.44000,
,,,-16.0000E-9,160.00000E-3,,,,,-16.0000E-9,3.44000,
,,,-15.9600E-9,160.00000E-3,,,,,-15.9600E-9,3.44000,
,,,-15.9200E-9,160.00000E-3,,,,,-15.9200E-9,3.44000,
,,,-15.8800E-9,160.00000E-3,,,,,-15.8800E-9,3.40000,
,,,-15.8400E-9,160.00000E-3,,,,,-15.8400E-9,3.40000,
,,,-15.8000E-9,160.00000E-3,,,,,-15.8000E-9,3.40000,
,,,-15.7600E-9,160.00000E-3,,,,,-15.7600E-9,3.40000,
,,,-15.7200E-9,160.00000E-3,,,,,-15.7200E-9,3.40000,
,,,-15.6800E-9,160.00000E-3,,,,,-15.6800E-9,3.40000,
,,,-15.6400E-9,160.00000E-3,,,,,-15.6400E-9,3.40000,
,,,-15.6000E-9,160.00000E-3,,,,,-15.6000E-9,3.40000,
,,,-15.5600E-9,160.00000E-3,,,,,-15.5600E-9,3.40000,
,,,-15.5200E-9,160.00000E-3,,,,,-15.5200E-9,3.40000,
,,,-15.4800E-9,160.00000E-3,,,,,-15.4800E-9,3.40000,
,,,-15.4400E-9,160.00000E-3,,,,,-15.4400E-9,3.40000,
,,,-15.4000E-9,160.00000E-3,,,,,-15.4000E-9,3.40000,
,,,-15.3600E-9,120.0000E-3,,,,,-15.3600E-9,3.40000,
,,,-15.3200E-9,120.0000E-3,,,,,-15.3200E-9,3.36000,
,,,-15.2800E-9,120.0000E-3,,,,,-15.2800E-9,3.36000,
,,,-15.2400E-9,120.0000E-3,,,,,-15.2400E-9,3.36000,
,,,-15.2000E-9,120.0000E-3,,,,,-15.2000E-9,3.36000,
,,,-15.1600E-9,120.0000E-3,,,,,-15.1600E-9,3.36000,
,,,-15.1200E-9,120.0000E-3,,,,,-15.1200E-9,3.36000,
,,,-15.0800E-9,120.0000E-3,,,,,-15.0800E-9,3.36000,
,,,-15.0400E-9,120.0000E-3,,,,,-15.0400E-9,3.36000,
,,,-15.0000E-9,120.0000E-3,,,,,-15.0000E-9,3.36000,
,,,-14.9600E-9,120.0000E-3,,,,,-14.9600E-9,3.36000,
,,,-14.9200E-9,120.0000E-3,,,,,-14.9200E-9,3.32000,
,,,-14.8800E-9,79.999998E-3,,,,,-14.8800E-9,3.32000,
,,,-14.8400E-9,79.999998E-3,,,,,-14.8400E-9,3.32000,
,,,-14.8000E-9,79.999998E-3,,,,,-14.8000E-9,3.32000,
,,,-14.7600E-9,79.999998E-3,,,,,-14.7600E-9,3.32000,
,,,-14.7200E-9,79.999998E-3,,,,,-14.7200E-9,3.32000,
,,,-14.6800E-9,79.999998E-3,,,,,-14.6800E-9,3.32000,
,,,-14.6400E-9,79.999998E-3,,,,,-14.6400E-9,3.32000,
,,,-14.6000E-9,79.999998E-3,,,,,-14.6000E-9,3.32000,
,,,-14.5600E-9,79.999998E-3,,,,,-14.5600E-9,3.32000,
,,,-14.5200E-9,79.999998E-3,,,,,-14.5200E-9,3.28000,
,,,-14.4800E-9,79.999998E-3,,,,,-14.4800E-9,3.28000,
,,,-14.4400E-9,79.999998E-3,,,,,-14.4400E-9,3.28000,
,,,-14.4000E-9,79.999998E-3,,,,,-14.4000E-9,3.28000,
,,,-14.3600E-9,79.999998E-3,,,,,-14.3600E-9,3.28000,
,,,-14.3200E-9,79.999998E-3,,,,,-14.3200E-9,3.28000,
,,,-14.2800E-9,79.999998E-3,,,,,-14.2800E-9,3.28000,
,,,-14.2400E-9,79.999998E-3,,,,,-14.2400E-9,3.28000,
,,,-14.2000E-9,79.999998E-3,,,,,-14.2000E-9,3.24000,
,,,-14.1600E-9,79.999998E-3,,,,,-14.1600E-9,3.24000,
,,,-14.1200E-9,79.999998E-3,,,,,-14.1200E-9,3.24000,
,,,-14.0800E-9,79.999998E-3,,,,,-14.0800E-9,3.24000,
,,,-14.0400E-9,79.999998E-3,,,,,-14.0400E-9,3.24000,
,,,-14.0000E-9,79.999998E-3,,,,,-14.0000E-9,3.24000,
,,,-13.9600E-9,79.999998E-3,,,,,-13.9600E-9,3.20000,
,,,-13.9200E-9,79.999998E-3,,,,,-13.9200E-9,3.20000,
,,,-13.8800E-9,79.999998E-3,,,,,-13.8800E-9,3.20000,
,,,-13.8400E-9,79.999998E-3,,,,,-13.8400E-9,3.20000,
,,,-13.8000E-9,79.999998E-3,,,,,-13.8000E-9,3.20000,
,,,-13.7600E-9,79.999998E-3,,,,,-13.7600E-9,3.20000,
,,,-13.7200E-9,79.999998E-3,,,,,-13.7200E-9,3.16000,
,,,-13.6800E-9,79.999998E-3,,,,,-13.6800E-9,3.16000,
,,,-13.6400E-9,79.999998E-3,,,,,-13.6400E-9,3.16000,
,,,-13.6000E-9,79.999998E-3,,,,,-13.6000E-9,3.16000,
,,,-13.5600E-9,79.999998E-3,,,,,-13.5600E-9,3.12000,
,,,-13.5200E-9,79.999998E-3,,,,,-13.5200E-9,3.12000,
,,,-13.4800E-9,79.999998E-3,,,,,-13.4800E-9,3.12000,
,,,-13.4400E-9,79.999998E-3,,,,,-13.4400E-9,3.12000,
,,,-13.4000E-9,79.999998E-3,,,,,-13.4000E-9,3.12000,
,,,-13.3600E-9,79.999998E-3,,,,,-13.3600E-9,3.08000,
,,,-13.3200E-9,79.999998E-3,,,,,-13.3200E-9,3.08000,
,,,-13.2800E-9,40.00000E-3,,,,,-13.2800E-9,3.08000,
,,,-13.2400E-9,40.00000E-3,,,,,-13.2400E-9,3.04000,
,,,-13.2000E-9,40.00000E-3,,,,,-13.2000E-9,3.04000,
,,,-13.1600E-9,40.00000E-3,,,,,-13.1600E-9,3.04000,
,,,-13.1200E-9,40.00000E-3,,,,,-13.1200E-9,3.04000,
,,,-13.0800E-9,40.00000E-3,,,,,-13.0800E-9,3.00000,
,,,-13.0400E-9,40.00000E-3,,,,,-13.0400E-9,3.00000,
,,,-13.0000E-9,40.00000E-3,,,,,-13.0000E-9,3.00000,
,,,-12.9600E-9,40.00000E-3,,,,,-12.9600E-9,2.96000,
,,,-12.9200E-9,40.00000E-3,,,,,-12.9200E-9,2.96000,
,,,-12.8800E-9,40.00000E-3,,,,,-12.8800E-9,2.96000,
,,,-12.8400E-9,40.00000E-3,,,,,-12.8400E-9,2.92000,
,,,-12.8000E-9,40.00000E-3,,,,,-12.8000E-9,2.92000,
,,,-12.7600E-9,40.00000E-3,,,,,-12.7600E-9,2.92000,
,,,-12.7200E-9,40.00000E-3,,,,,-12.7200E-9,2.88000,
,,,-12.6800E-9,40.00000E-3,,,,,-12.6800E-9,2.88000,
,,,-12.6400E-9,40.00000E-3,,,,,-12.6400E-9,2.84000,
,,,-12.6000E-9,40.00000E-3,,,,,-12.6000E-9,2.84000,
,,,-12.5600E-9,40.00000E-3,,,,,-12.5600E-9,2.84000,
,,,-12.5200E-9,40.00000E-3,,,,,-12.5200E-9,2.80000,
,,,-12.4800E-9,40.00000E-3,,,,,-12.4800E-9,2.80000,
,,,-12.4400E-9,40.00000E-3,,,,,-12.4400E-9,2.80000,
,,,-12.4000E-9,40.00000E-3,,,,,-12.4000E-9,2.76000,
,,,-12.3600E-9,40.00000E-3,,,,,-12.3600E-9,2.76000,
,,,-12.3200E-9,40.00000E-3,,,,,-12.3200E-9,2.72000,
,,,-12.2800E-9,40.00000E-3,,,,,-12.2800E-9,2.72000,
,,,-12.2400E-9,40.00000E-3,,,,,-12.2400E-9,2.6800,
,,,-12.2000E-9,40.00000E-3,,,,,-12.2000E-9,2.6800,
,,,-12.1600E-9,40.00000E-3,,,,,-12.1600E-9,2.6400,
,,,-12.1200E-9,40.00000E-3,,,,,-12.1200E-9,2.6400,
,,,-12.0800E-9,0.0,,,,,-12.0800E-9,2.6400,
,,,-12.0400E-9,0.0,,,,,-12.0400E-9,2.6000,
,,,-12.0000E-9,0.0,,,,,-12.0000E-9,2.6000,
,,,-11.9600E-9,0.0,,,,,-11.9600E-9,2.5600,
,,,-11.9200E-9,0.0,,,,,-11.9200E-9,2.5600,
,,,-11.8800E-9,0.0,,,,,-11.8800E-9,2.5200,
,,,-11.8400E-9,0.0,,,,,-11.8400E-9,2.5200,
,,,-11.8000E-9,0.0,,,,,-11.8000E-9,2.4800,
,,,-11.7600E-9,40.00000E-3,,,,,-11.7600E-9,2.4800,
,,,-11.7200E-9,40.00000E-3,,,,,-11.7200E-9,2.4400,
,,,-11.6800E-9,40.00000E-3,,,,,-11.6800E-9,2.4400,
,,,-11.6400E-9,40.00000E-3,,,,,-11.6400E-9,2.4000,
,,,-11.6000E-9,40.00000E-3,,,,,-11.6000E-9,2.4000,
,,,-11.5600E-9,40.00000E-3,,,,,-11.5600E-9,2.3600,
,,,-11.5200E-9,40.00000E-3,,,,,-11.5200E-9,2.3600,
,,,-11.4800E-9,40.00000E-3,,,,,-11.4800E-9,2.3200,
,,,-11.4400E-9,40.00000E-3,,,,,-11.4400E-9,2.2800,
,,,-11.4000E-9,40.00000E-3,,,,,-11.4000E-9,2.2800,
,,,-11.3600E-9,40.00000E-3,,,,,-11.3600E-9,2.2400,
,,,-11.3200E-9,40.00000E-3,,,,,-11.3200E-9,2.2400,
,,,-11.2800E-9,40.00000E-3,,,,,-11.2800E-9,2.2000,
,,,-11.2400E-9,40.00000E-3,,,,,-11.2400E-9,2.2000,
,,,-11.2000E-9,40.00000E-3,,,,,-11.2000E-9,2.1600,
,,,-11.1600E-9,40.00000E-3,,,,,-11.1600E-9,2.1600,
,,,-11.1200E-9,40.00000E-3,,,,,-11.1200E-9,2.1200,
,,,-11.0800E-9,40.00000E-3,,,,,-11.0800E-9,2.1200,
,,,-11.0400E-9,40.00000E-3,,,,,-11.0400E-9,2.0800,
,,,-11.0000E-9,40.00000E-3,,,,,-11.0000E-9,2.0800,
,,,-10.9600E-9,40.00000E-3,,,,,-10.9600E-9,2.0400,
,,,-10.9200E-9,40.00000E-3,,,,,-10.9200E-9,2.0400,
,,,-10.8800E-9,40.00000E-3,,,,,-10.8800E-9,2.0000,
,,,-10.8400E-9,40.00000E-3,,,,,-10.8400E-9,2.0000,
,,,-10.8000E-9,40.00000E-3,,,,,-10.8000E-9,1.9600,
,,,-10.7600E-9,40.00000E-3,,,,,-10.7600E-9,1.9600,
,,,-10.7200E-9,40.00000E-3,,,,,-10.7200E-9,1.9200,
,,,-10.6800E-9,40.00000E-3,,,,,-10.6800E-9,1.9200,
,,,-10.6400E-9,40.00000E-3,,,,,-10.6400E-9,1.8800,
,,,-10.6000E-9,40.00000E-3,,,,,-10.6000E-9,1.8800,
,,,-10.5600E-9,40.00000E-3,,,,,-10.5600E-9,1.8400,
,,,-10.5200E-9,40.00000E-3,,,,,-10.5200E-9,1.8400,
